[gd_scene load_steps=2 format=3 uid="uid://cg1c4lli8qoxx"]

[ext_resource type="Script" path="res://ui/hud/player/hud_player.gd" id="1_p8nhu"]

[node name="hud_player" type="Control" node_paths=PackedStringArray("announce", "announce_timer")]
layout_mode = 3
anchors_preset = 15
anchor_right = 1.0
anchor_bottom = 1.0
grow_horizontal = 2
grow_vertical = 2
mouse_filter = 2
script = ExtResource("1_p8nhu")
announce = NodePath("announce")
announce_timer = NodePath("timer")

[node name="announce" type="RichTextLabel" parent="."]
layout_mode = 1
anchors_preset = 10
anchor_right = 1.0
offset_top = 200.0
offset_bottom = 260.0
grow_horizontal = 2
mouse_filter = 2
theme_override_colors/font_outline_color = Color(0, 0, 0, 1)
theme_override_constants/outline_size = 12
theme_override_font_sizes/normal_font_size = 38
bbcode_enabled = true
text = "[center]ANNOUNCEMENT[/center]"
fit_content = true
scroll_active = false
autowrap_mode = 0

[node name="timer" type="RichTextLabel" parent="."]
layout_mode = 1
anchors_preset = 10
anchor_right = 1.0
offset_top = 250.0
offset_bottom = 310.0
grow_horizontal = 2
mouse_filter = 2
theme_override_colors/font_outline_color = Color(0, 0, 0, 1)
theme_override_constants/outline_size = 12
theme_override_font_sizes/normal_font_size = 28
bbcode_enabled = true
text = "[center]00:00[/center]"
fit_content = true
scroll_active = false
autowrap_mode = 0
