[gd_scene load_steps=2 format=3 uid="uid://cahhvkljsebg8"]

[ext_resource type="Script" path="res://statuses/base/status_effect.gd" id="1_chotv"]

[node name="StatusEffect" type="Node2D"]
script = ExtResource("1_chotv")

[node name="duration_timer" type="Timer" parent="."]
wait_time = 5.0
one_shot = true

[node name="proc_timer" type="Timer" parent="."]

[connection signal="timeout" from="duration_timer" to="." method="_on_duration_timer_timeout"]
[connection signal="timeout" from="proc_timer" to="." method="_on_proc_timer_timeout"]
